…
5.**The 5-minute interval that, on average, contains the maximum number of steps**
The objective of item five is achieving through the following code.

```r
max_interval <- arrange(number_steps_interval2, desc(sum))
print(max_interval)                                                   
```

```
## # A tibble: 288 x 2
##    interval   sum
##       <int> <dbl>
##  1      835   179
##  2      840   170
##  3      850   159
##  4      845   156
##  5      830   154
##  6      820   149
##  7      855   145
##  8      815   137
##  9      825   135
## 10      900   125
## # ... with 278 more rows
```
…
